net\runelite\client\util\ImageUtilTest.class
net\runelite\client\plugins\itemcharges\ItemChargePluginTest.class
net\runelite\client\config\TestConfig.class
net\runelite\client\plugins\cerberus\CerberusPluginTest.class
net\runelite\client\plugins\twitch\irc\MessageTest.class
net\runelite\client\plugins\chatcommands\ChatCommandsPluginTest.class
net\runelite\client\plugins\gpu\ShaderTest.class
net\runelite\client\ui\overlay\OverlayManagerTest$1.class
net\runelite\client\util\TextTest.class
net\runelite\client\ui\overlay\OverlayManagerTest$OverlayB.class
net\runelite\client\game\ItemVariationMappingTest.class
net\runelite\client\plugins\combatlevel\CombatLevelPluginTest.class
net\runelite\client\ui\overlay\components\TextComponentTest.class
net\runelite\client\plugins\timetracking\farming\FarmingWorldTest.class
net\runelite\client\ui\overlay\OverlayManagerTest$TestOverlay.class
net\runelite\client\plugins\grandexchange\GrandExchangeOfferSlotTest.class
net\runelite\client\plugins\bankvalue\BankCalculationTest.class
net\runelite\client\plugins\attackstyles\AttackStylesPluginTest.class
net\runelite\client\game\ItemVariationMappingTest$1.class
net\runelite\client\config\ConfigManagerTest.class
net\runelite\client\plugins\puzzlesolver\PuzzleSolverTest.class
net\runelite\client\plugins\worldmap\TeleportLocationDataTest.class
net\runelite\client\util\ColorUtilTest.class
net\runelite\client\plugins\gpu\template\TemplateTest.class
net\runelite\client\RuneLiteModuleTest.class
net\runelite\client\plugins\reorderprayers\ReorderPrayersPluginTest.class
net\runelite\client\util\ColorUtilTest$1.class
net\runelite\client\plugins\idlenotifier\IdleNotifierPluginTest.class
net\runelite\client\plugins\timetracking\farming\PatchImplementationTest.class
net\runelite\client\plugins\hiscore\HiscorePanelTest$1.class
net\runelite\client\ui\overlay\OverlayManagerTest.class
net\runelite\client\plugins\puzzlesolver\lightbox\LightboxSolverTest.class
net\runelite\client\rs\ClientConfigLoaderTest.class
net\runelite\client\plugins\chatnotifications\ChatNotificationsPluginTest.class
net\runelite\client\plugins\npchighlight\NpcIndicatorsPluginTest.class
net\runelite\client\plugins\timetracking\clocks\ClockPanelTest.class
net\runelite\client\plugins\grounditems\WildcardMatchLoaderTest.class
net\runelite\client\plugins\PluginManagerTest.class
net\runelite\client\plugins\slayer\SlayerPluginTest.class
net\runelite\client\ui\overlay\OverlayManagerTest$OverlayA.class
net\runelite\client\util\WildcardMatcherTest.class
net\runelite\client\plugins\hiscore\HiscorePanelTest.class
net\runelite\client\util\StackFormatterTest.class
net\runelite\client\ui\FontManagerTest.class
net\runelite\client\plugins\screenshot\ScreenshotPluginTest.class
net\runelite\client\plugins\itemstats\ItemStatChangesTest.class
